{
  "paging": {
    "recordsPerPage": 10,
    "totalRecords": 30,
    "currentPage": 1,
    "totalPages": 3
  },
  "boardList": [
    {
      "id": 408,
      "title": "Scholarship notice one",
      "content": "<p>Detailed scholarship body one.</p>",
      "createdAt": "2026-07-22 00:00:00",
      "isNoticed": false,
      "type": "SANITIZED",
      "views": 0,
      "attached": false
    },
    {
      "id": 407,
      "title": "Scholarship notice two",
      "content": "<p>Detailed scholarship body two.</p>",
      "createdAt": "2026-07-21 00:00:00",
      "isNoticed": false,
      "type": "SANITIZED",
      "views": 0,
      "attached": false
    }
  ]
}
